// Jest Snapshot v1, https://goo.gl/fbAQLP

exports[`FeedWidgetElement props Should match the snapshot 1`] = `"<div class=\\"\\"><div><p>Rick Riordan</p><p>3/22/1999 19:0</p></div><p>Greek gods exist</p></div>"`;
