// Jest Snapshot v1, https://goo.gl/fbAQLP

exports[`<Home /> Should match the snapshot 1`] = `"<div><div class=\\"\\"><div><h3>Left feed</h3><div><h3>3</h3></div></div><div class=\\"\\"><label>Limit:</label><input type=\\"number\\" value=\\"10\\" placeholder=\\"\\"/></div><div class=\\"\\"><label>Interval:</label><input type=\\"number\\" value=\\"3\\" placeholder=\\"\\"/></div><small>* Changes will be made after the next refresh</small></div><div class=\\"\\"><div><h3>Right feed</h3><div><h3>10</h3></div></div></div></div>"`;
